ODInvertebres;v1.0.1;2019-05-27;Temps d'execution :;28.31secs
CODE_STATION;DATE;CODE_OPERATION;MATIERES_ORGANIQUES;MATIERES_PHOSPHOREES;MATIERES_AZOTEES;NITRATES;HAP;PESTICIDES;RIPISYLVE;VOIES_COMMUNICATION;URBANISATION_100M;RISQUE_COLMATAGE;INSTABILITE_HYDROLOGIQUE;ANTHROPISATION_BV
3172380;2017-09-12;31723802017;0.268;0.2235;0.1491;0.4687;0.6878;0.5199;0.4025;0.2947;0.5454;0.5487;0.724;0.7138
3174565;2017-07-06;31745652017;0.6855;0.6177;0.5956;0.6018;0.607;0.6203;0.7076;0.3806;0.5692;0.5608;0.6003;0.7262
3174695;2017-07-06;31746952017;0.5696;0.3085;0.1924;0.6305;0.3079;0.8858;0.6708;0.1886;0.2703;0.4995;0.6077;0.8232
3175000;2017-07-05;31750002017;0.063;0.0627;0.0225;0.9144;0.6057;0.8063;0.6952;0.0611;0.2971;0.7444;0.2106;0.9348
3176470;2017-07-04;31764702017;0.1901;0.0824;0.0314;0.9041;0.5972;0.564;0.648;0.0796;0.2937;0.7408;0.4956;0.898
3176945;2017-07-05;31769452017;0.1297;0.1376;0.0503;0.9651;0.7859;0.7073;0.7088;0.093;0.6897;0.9461;0.6737;0.9678
3177760;2017-07-04;31777602017;0.0515;0.152;0.0448;0.8679;0.9258;0.799;0.553;0.1671;0.7204;0.7692;0.6403;0.932
3178000;2017-07-04;31780002017;0.0527;0.0623;0.0121;0.8784;0.6228;0.7851;0.3971;0.1045;0.5225;0.7953;0.2693;0.9054
3178660;2017-07-06;31786602017;0.073;0.0206;0.0052;0.8787;0.7344;0.5357;0.6927;0.0208;0.2391;0.7227;0.445;0.8845
3178835;2017-07-06;31788352017;0.0916;0.0674;0.0211;0.9106;0.8505;0.4664;0.6812;0.0727;0.6637;0.8987;0.5607;0.9175
3179000;2017-07-07;31790002017;0.0896;0.1138;0.0425;0.9628;0.816;0.6755;0.7207;0.066;0.7195;0.9278;0.5643;0.9775
3180100;2017-07-07;31801002017;0.129;0.0797;0.0318;0.9437;0.7002;0.4469;0.6206;0.1152;0.605;0.8893;0.5421;0.9069
3181000;2017-07-07;31810002017;0.0794;0.1263;0.0213;0.9498;0.6796;0.6548;0.6406;0.1051;0.6333;0.8339;0.4337;0.9273
3182415;2017-07-11;31824152017;0.3114;0.2804;0.3116;0.5378;0.6039;0.5558;0.4465;0.3062;0.5583;0.5499;0.6353;0.5834
3183950;2017-07-11;31839502017;0.3902;0.3661;0.3623;0.8742;0.6237;0.549;0.5651;0.3489;0.7498;0.7719;0.5945;0.8261
3184850;2017-09-21;31848502017;0.7935;0.7882;0.7936;0.4377;0.6892;0.8056;0.8462;0.5608;0.7658;0.4161;0.7173;0.9101
3190080;2017-09-11;31900802017;0.2132;0.2875;0.1345;0.9101;0.5777;0.7969;0.4083;0.4035;0.5893;0.8005;0.4326;0.9148
3190895;2017-08-03;31908952017;0.2517;0.4603;0.1083;0.7537;0.7423;0.8309;0.7014;0.2191;0.5708;0.715;0.5059;0.9783
3190922;2017-05-31;31909222017;0.4044;0.4019;0.2667;0.8216;0.7713;0.7317;0.4765;0.2319;0.6287;0.7413;0.6842;0.8615
3191000;2017-10-05;31910002017;0.1264;0.1581;0.0685;0.7561;0.3952;0.6532;0.4421;0.3008;0.3965;0.7275;0.3702;0.8236
3191350;2017-09-12;31913502017;0.5393;0.5419;0.5288;0.5925;0.6308;0.5247;0.432;0.5411;0.6453;0.5621;0.7153;0.5597
3191372;2017-07-10;31913722017;0.0646;0.0735;0.0189;0.9934;0.7938;0.8404;0.4988;0.0726;0.6177;0.9835;0.5886;1
3191700;2017-10-05;31917002017;0.0953;0.0719;0.0242;0.8541;0.4455;0.7655;0.4161;0.1537;0.3369;0.7589;0.2917;0.8872
3192378;2017-07-28;31923782017;0.6599;0.6005;0.5374;0.6038;0.5682;0.4587;0.4572;0.5019;0.6015;0.6486;0.6302;0.6624
3194250;2017-05-23;31942502017;0.2005;0.1039;0.0346;0.8491;0.7462;0.8359;0.6417;0.0971;0.485;0.6323;0.2994;0.9395
3194280;2017-06-02;31942802017;0.5999;0.426;0.3286;0.5171;0.401;0.8385;0.639;0.2594;0.3705;0.4548;0.5157;0.8257
3194350;2017-05-23;31943502017;0.1438;0.1285;0.0225;0.7657;0.7072;0.8944;0.7768;0.1107;0.4485;0.5753;0.2448;0.9599
3194362;2017-06-02;31943622017;0.719;0.5727;0.516;0.7591;0.5435;0.8361;0.6288;0.2826;0.53;0.6686;0.3868;0.7933
3194415;2017-06-01;31944152017;0.6834;0.7785;0.6909;0.7681;0.8418;0.9415;0.7207;0.2988;0.6642;0.6943;0.4296;0.9602
3194540;2017-06-02;31945402017;0.5391;0.2767;0.2183;0.6394;0.471;0.5642;0.4547;0.2248;0.5304;0.6314;0.621;0.8346
3194543;2017-06-01;31945432017;0.0861;0.0712;0.0259;0.7644;0.5739;0.4577;0.6377;0.0656;0.5442;0.6213;0.4182;0.6517
3194620;2017-06-16;31946202017;0.0695;0.0541;0.0094;0.9522;0.6725;0.449;0.4881;0.0416;0.3331;0.8436;0.4456;0.9429
3194725;2017-06-01;31947252017;0.2992;0.1679;0.0888;0.8496;0.7783;0.9146;0.5027;0.1128;0.5415;0.7335;0.5492;0.9706
3194775;2017-06-01;31947752017;0.361;0.2347;0.1881;0.5349;0.6933;0.7422;0.5101;0.2461;0.5278;0.4835;0.5375;0.8393
3195348;2017-05-31;31953482017;0.4627;0.2762;0.2487;0.5211;0.6684;0.7696;0.5304;0.3466;0.529;0.5539;0.6947;0.6783
3195417;2018-06-16;31954172018;0.0592;0.0455;0.0071;0.9936;0.6782;0.5466;0.5584;0.0415;0.3997;0.8943;0.3223;0.9625
3195610;2017-05-31;31956102017;0.6998;0.5643;0.5094;0.5639;0.5031;0.8319;0.6913;0.1961;0.3342;0.5244;0.4766;0.7471
3196000;2017-09-11;31960002017;0.1516;0.1227;0.0567;0.8125;0.5638;0.6865;0.6122;0.2018;0.3568;0.6781;0.2457;0.7831
3196080;2017-05-31;31960802017;0.1447;0.1549;0.093;0.8514;0.8052;0.5115;0.6173;0.2279;0.6526;0.7697;0.6068;0.8278
3196400;2017-07-26;31964002017;0.6979;0.5519;0.5217;0.5294;0.4072;0.5618;0.4779;0.3453;0.4303;0.5449;0.6744;0.6363
3196450;2017-07-10;31964502017;0.2406;0.117;0.0443;0.6499;0.4551;0.7892;0.5211;0.1662;0.4022;0.5552;0.4384;0.9376
3197000;2017-07-26;31970002017;0.2187;0.0761;0.0551;0.6031;0.513;0.8504;0.5612;0.1101;0.3222;0.4788;0.3183;0.9639
3197204;2017-07-27;31972042017;0.047;0.046;0.0095;0.9669;0.7307;0.8706;0.7038;0.072;0.4085;0.7248;0.1321;0.9724
3197430;2017-06-15;31974302017;0.0308;0.0225;0.0146;0.9228;0.7506;0.886;0.7734;0.0949;0.4113;0.713;0.0878;0.989
3198000;2017-07-27;31980002017;0.1835;0.1607;0.0503;0.8605;0.4675;0.8656;0.6928;0.1529;0.4238;0.6624;0.2276;0.9549
3198300;2017-06-13;31983002017;0.0363;0.0281;0.0037;0.9508;0.6741;0.8657;0.5434;0.0745;0.3138;0.8022;0.0861;0.9745
3198530;2017-06-15;31985302017;0.0732;0.0255;0.022;0.7674;0.6197;0.4214;0.5052;0.0789;0.3013;0.7285;0.3318;0.8921
3198750;2017-06-13;31987502017;0.0775;0.0667;0.0077;0.8853;0.7227;0.5678;0.5939;0.0869;0.4967;0.8404;0.3621;0.9485
3199200;2017-07-27;31992002017;0.222;0.136;0.0456;0.9757;0.6578;0.6984;0.5328;0.0746;0.5708;0.8617;0.4796;0.957
3200070;2017-07-27;32000702017;0.0981;0.1441;0.0668;0.9494;0.6205;0.7921;0.4736;0.1424;0.5713;0.8555;0.3947;0.9289
3200435;2017-09-22;32004352017;0.4759;0.5178;0.4601;0.8353;0.7294;0.5573;0.5203;0.5064;0.7727;0.6919;0.5524;0.8465
3201000;2017-07-11;32010002017;0.0648;0.1341;0.0631;0.9345;0.8242;0.5852;0.6489;0.1899;0.8138;0.8292;0.6217;0.9328
3201260;2017-07-26;32012602017;0.0689;0.0551;0.0364;0.9555;0.8157;0.4851;0.6699;0.0663;0.5999;0.8806;0.6013;0.9529
3201650;2017-07-26;32016502017;0.1918;0.2224;0.1257;0.7932;0.8212;0.5941;0.632;0.2026;0.7094;0.7263;0.6393;0.8993
3202250;2017-07-26;32022502017;0.0264;0.0537;0.0223;0.944;0.8017;0.7062;0.7207;0.0632;0.751;0.9032;0.5441;0.9625
3203472;2017-09-21;32034722017;0.2269;0.3105;0.1518;0.8281;0.7951;0.7255;0.6297;0.2592;0.7171;0.7412;0.6903;0.9045
3204000;2017-09-21;32040002017;0.0959;0.168;0.0723;0.9675;0.7914;0.61;0.672;0.1625;0.708;0.9069;0.5559;0.9365
3205000;2017-09-21;32050002017;0.3097;0.3759;0.1673;0.865;0.7687;0.5843;0.5367;0.2524;0.7292;0.8135;0.6588;0.9317
3207020;2017-07-28;32070202017;0.5845;0.706;0.6033;0.5964;0.7688;0.8812;0.7201;0.5294;0.7956;0.5171;0.638;0.9275
3207220;2017-07-20;32072202017;0.0399;0.0194;0.0068;0.9227;0.8498;0.4327;0.7482;0.0351;0.6111;0.9217;0.4876;0.9285
3207235;2017-07-20;32072352017;0.1332;0.0554;0.0477;0.9405;0.6926;0.5128;0.5352;0.0629;0.5786;0.8893;0.5985;0.9269
3207283;2017-07-20;32072832017;0.1224;0.1942;0.1691;0.7925;0.8427;0.6905;0.593;0.186;0.7179;0.71;0.6212;0.82
3207335;2017-07-20;32073352017;0.1837;0.1237;0.0813;0.84;0.7238;0.5238;0.5452;0.1532;0.6181;0.7992;0.6384;0.9318
3207490;2017-07-21;32074902017;0.222;0.092;0.0506;0.7063;0.724;0.5725;0.5522;0.1557;0.4991;0.6574;0.6934;0.789
3207610;2017-07-21;32076102017;0.0579;0.0368;0.0219;0.9502;0.8406;0.5992;0.697;0.0469;0.6021;0.8918;0.4465;0.9672
3207710;2017-07-21;32077102017;0.1322;0.2306;0.1492;0.8678;0.8363;0.7305;0.5475;0.2661;0.7466;0.7192;0.723;0.9034
3207750;2017-07-21;32077502017;0.0533;0.0518;0.0198;0.9663;0.8133;0.4751;0.7169;0.0878;0.6643;0.9258;0.5525;0.9493
3207865;2017-07-22;32078652017;0.0579;0.1086;0.0597;0.9708;0.8758;0.5167;0.7176;0.1106;0.8283;0.952;0.7124;0.9496
3208000;2017-07-22;32080002017;0.1007;0.052;0.0301;0.8954;0.7021;0.669;0.6278;0.0504;0.3742;0.6837;0.3406;0.8929
3208483;2017-07-22;32084832017;0.4834;0.5531;0.519;0.7383;0.795;0.6599;0.5315;0.3725;0.6795;0.6442;0.6823;0.8281
3208520;2017-07-22;32085202017;0.0575;0.0549;0.0178;0.9533;0.7821;0.5949;0.6703;0.0326;0.4711;0.8443;0.461;0.9659
3209485;2017-07-24;32094852017;0.1723;0.164;0.0794;0.8956;0.7479;0.5772;0.6627;0.2131;0.7916;0.8333;0.6881;0.8993
3211000;2017-07-25;32110002017;0.0292;0.044;0.0067;0.952;0.8003;0.7364;0.6677;0.0549;0.5611;0.8426;0.2603;0.959
3212090;2017-07-24;32120902017;0.069;0.0837;0.0253;0.8842;0.7031;0.8067;0.7054;0.1057;0.3499;0.7158;0.108;0.963
3212150;2017-07-26;32121502017;0.1095;0.1721;0.1173;0.8908;0.8665;0.7153;0.6446;0.1544;0.712;0.7968;0.7007;0.9227
3213000;2017-07-24;32130002017;0.0698;0.0233;0.0083;0.9008;0.7227;0.5379;0.4828;0.0551;0.4294;0.7789;0.4252;0.957
3213480;2017-07-24;32134802017;0.1391;0.0323;0.018;0.7895;0.5582;0.4075;0.5895;0.0494;0.2844;0.6205;0.5042;0.7542
3214240;2017-07-25;32142402017;0.0821;0.085;0.0255;0.9415;0.7549;0.4915;0.6925;0.1011;0.7098;0.8624;0.5219;0.9049
3215000;2017-07-25;32150002017;0.1281;0.1087;0.0856;0.7922;0.7067;0.5646;0.6937;0.1364;0.697;0.7949;0.4287;0.8952
3216000;2017-07-25;32160002017;0.1942;0.132;0.0862;0.9508;0.6248;0.7227;0.5635;0.1921;0.6186;0.8563;0.6797;0.9381
3216250;2017-09-20;32162502017;0.3156;0.3235;0.2845;0.7475;0.6674;0.4657;0.5821;0.4798;0.745;0.6526;0.5554;0.7736
3216310;2017-09-20;32163102017;0.34;0.2947;0.267;0.7965;0.614;0.4005;0.4686;0.3067;0.6398;0.7167;0.6146;0.7965
3217000;2017-09-20;32170002017;0.3454;0.2483;0.1431;0.9423;0.7418;0.4879;0.6075;0.2664;0.6725;0.8935;0.5583;0.923
3217400;2017-09-20;32174002017;0.0793;0.031;0.0111;0.9502;0.8497;0.4939;0.5974;0.0418;0.6125;0.9219;0.5378;0.8972
3219000;2017-09-27;32190002017;0.5693;0.5826;0.5412;0.6997;0.6143;0.8832;0.8279;0.4285;0.6052;0.5871;0.4057;0.9116
3219550;2017-07-26;32195502017;0.1532;0.1304;0.0678;0.7387;0.7396;0.8122;0.5947;0.2044;0.4704;0.5825;0.3596;0.9385
3219780;2017-07-26;32197802017;0.1233;0.072;0.0264;0.776;0.7002;0.7961;0.7615;0.2098;0.387;0.5994;0.0739;0.9266
3221500;2017-07-28;32215002017;0.0271;0.0551;0.0144;0.9697;0.7345;0.8667;0.728;0.0513;0.4195;0.9372;0.3391;0.9806
3222418;2017-07-25;32224182017;0.5341;0.1814;0.1254;0.613;0.4791;0.3735;0.4919;0.183;0.265;0.5169;0.6474;0.4874
3222480;2017-07-25;32224802017;0.1483;0.0268;0.0195;0.8287;0.5906;0.4764;0.6772;0.0345;0.1487;0.5602;0.2734;0.858
3222780;2017-07-25;32227802017;0.0973;0.103;0.0314;0.8055;0.7068;0.5658;0.6379;0.1238;0.5527;0.7199;0.5747;0.8288
3223200;2017-07-25;32232002017;0.0607;0.0292;0.0099;0.7456;0.6368;0.6891;0.7954;0.0594;0.1571;0.4969;0.0165;0.8358
3225015;2017-07-28;32250152017;0.515;0.4073;0.2838;0.7771;0.6922;0.7532;0.4936;0.1914;0.5745;0.7839;0.6253;0.8939
3225030;2017-07-21;32250302017;0.0968;0.0297;0.0144;0.8685;0.7649;0.4998;0.6478;0.0473;0.3935;0.7145;0.5066;0.8249
3225460;2017-06-22;32254602017;0.0458;0.0214;0.0018;0.9328;0.7257;0.6792;0.7401;0.0242;0.1757;0.6976;0.3227;0.9552
3226000;2017-06-21;32260002017;0.0553;0.0253;0.0022;0.4076;0.3874;0.4225;0.4527;0.056;0.1429;0.2584;0.1993;0.6583
3226488;2017-06-21;32264882017;0.1215;0.0446;0.014;0.9441;0.8286;0.4377;0.5986;0.0315;0.5261;0.9037;0.5279;0.9279
3226540;2017-06-21;32265402017;0.0515;0.0348;0.0218;0.9244;0.7262;0.6455;0.6433;0.0467;0.381;0.7852;0.3366;0.9582
3226640;2017-06-21;32266402017;0.0548;0.0252;0.0157;0.9179;0.6827;0.5817;0.6673;0.0267;0.2989;0.622;0.2794;0.8595
3226835;2017-06-20;32268352017;0.1174;0.0323;0.0118;0.8816;0.6127;0.4972;0.6723;0.0151;0.2836;0.5993;0.3098;0.8573
3227725;2017-06-20;32277252017;0.0656;0.0394;0.0101;0.9627;0.7732;0.4577;0.7081;0.0517;0.6063;0.8797;0.5718;0.9229
3227770;2017-06-20;32277702017;0.0584;0.0427;0.0209;0.9176;0.8062;0.4202;0.7114;0.0356;0.3469;0.6912;0.2946;0.8753
3228000;2017-09-27;32280002017;0.0593;0.1331;0.0371;0.9314;0.6966;0.5934;0.6329;0.1086;0.5433;0.7286;0.4138;0.9179
3228690;2017-06-22;32286902017;0.0491;0.0344;0.0177;0.9344;0.6899;0.8092;0.699;0.0323;0.3108;0.7877;0.2566;0.9596
3229000;2017-06-23;32290002017;0.1391;0.1163;0.0504;0.8618;0.6036;0.7211;0.598;0.1605;0.4781;0.7311;0.3111;0.8004
3230000;2017-06-23;32300002017;0.0636;0.1056;0.0241;0.9025;0.4902;0.8313;0.5607;0.1389;0.3087;0.7797;0.3572;0.9313
3230200;2017-06-02;32302002017;0.6259;0.5616;0.5028;0.6874;0.4785;0.9681;0.9179;0.1559;0.4361;0.604;0.3952;0.9501
3230760;2017-06-26;32307602017;0.0432;0.0513;0.0095;0.9796;0.8068;0.6138;0.627;0.0555;0.5461;0.952;0.3337;0.9827
3231065;2017-06-26;32310652017;0.3705;0.1026;0.0417;0.9674;0.709;0.6024;0.5541;0.0672;0.444;0.903;0.6291;0.9289
3231490;2017-06-26;32314902017;0.0782;0.0552;0.0214;0.906;0.7515;0.6667;0.6947;0.0554;0.411;0.7335;0.4031;0.8924
3231740;2017-10-18;32317402017;0.2112;0.0241;0.0182;0.3187;0.4637;0.4082;0.4874;0.1693;0.2404;0.2875;0.3506;0.5255
3232080;2017-10-18;32320802017;0.0912;0.0343;0.0066;0.6408;0.487;0.4928;0.7019;0.0241;0.1043;0.4235;0.3041;0.6404
3232450;2017-06-23;32324502017;0.0738;0.0528;0.025;0.8892;0.6521;0.8029;0.7382;0.0392;0.2143;0.7212;0.2696;0.8973
3232520;2017-06-23;32325202017;0.3011;0.1004;0.0391;0.5664;0.6031;0.4737;0.5025;0.1169;0.2983;0.585;0.6232;0.6691
3233700;2017-06-29;32337002017;0.4677;0.2915;0.1489;0.7769;0.479;0.6701;0.5795;0.2828;0.5406;0.6317;0.5972;0.8538
3233896;2017-07-18;32338962017;0.2355;0.1031;0.0249;0.7666;0.2335;0.8469;0.6217;0.2555;0.3284;0.6087;0.4616;0.9299
3234215;2017-06-28;32342152017;0.5184;0.3195;0.2821;0.7118;0.5403;0.5632;0.5772;0.2672;0.565;0.6847;0.773;0.7131
3234956;2017-06-28;32349562017;0.1185;0.0565;0.0317;0.2957;0.5316;0.7753;0.5503;0.2959;0.4838;0.365;0.5778;0.3864
3235250;2017-06-27;32352502017;0.0917;0.0343;0.0223;0.7344;0.5974;0.746;0.5431;0.1301;0.3588;0.611;0.1519;0.8705
3236410;2017-06-27;32364102017;0.2462;0.0475;0.0332;0.6797;0.4493;0.4467;0.5483;0.0604;0.2211;0.5371;0.4861;0.5932
3236690;2017-10-03;32366902017;0.0917;0.0444;0.0151;0.9192;0.6011;0.5201;0.6989;0.0239;0.2238;0.7336;0.493;0.8479
3236714;2017-06-26;32367142017;0.2632;0.0354;0.0382;0.628;0.5226;0.4332;0.5719;0.0585;0.1727;0.5452;0.5637;0.5533
3239390;2017-06-29;32393902017;0.6333;0.5944;0.5647;0.457;0.5075;0.6725;0.4603;0.5594;0.5651;0.4472;0.6665;0.4773
3239520;2017-06-29;32395202017;0.4478;0.4849;0.2824;0.7637;0.7109;0.7338;0.5804;0.3001;0.6173;0.6566;0.612;0.8983
3240000;2017-06-28;32400002017;0.2955;0.2255;0.1117;0.4413;0.5997;0.8252;0.4872;0.4974;0.5505;0.4335;0.5014;0.8487
3241000;2017-07-18;32410002017;0.1136;0.0164;0.0101;0.6558;0.5021;0.4824;0.7113;0.0241;0.0633;0.3936;0.0631;0.7045
3241170;2017-07-19;32411702017;0.0313;0.0017;0.0059;0.0765;0.3529;0.562;0.653;0.0246;0.0282;0.0302;0.2518;0.2218
3241231;2017-07-19;32412312017;0.1541;0.0446;0.0255;0.558;0.6252;0.6927;0.6742;0.0562;0.2383;0.4042;0.3527;0.8048
3241957;2017-06-27;32419572017;0.0865;0.0639;0.0369;0.5967;0.6578;0.8737;0.6988;0.208;0.3045;0.3862;0.1768;0.9027
3242800;2017-07-18;32428002017;0.1037;0.0488;0.0386;0.6371;0.5391;0.7978;0.5499;0.1026;0.3062;0.4047;0.2563;0.8962
3243540;2017-07-20;32435402017;0.1512;0.0388;0.0234;0.8483;0.6304;0.6091;0.5783;0.0537;0.2895;0.6426;0.408;0.9168
3245970;2017-07-21;32459702017;0.2614;0.4547;0.2065;0.8024;0.4919;0.6182;0.519;0.4502;0.5785;0.6302;0.562;0.8041
3246300;2017-07-21;32463002017;0.4717;0.4524;0.2215;0.8405;0.6176;0.7371;0.587;0.2161;0.5399;0.7425;0.6158;0.8896
3247275;2017-09-05;32472752017;0.1231;0.0582;0.0253;0.8798;0.3865;0.8416;0.6049;0.099;0.21;0.7039;0.2504;0.9205
3247415;2017-09-05;32474152017;0.0851;0.0347;0.0117;0.9374;0.6725;0.8541;0.6875;0.065;0.3363;0.7745;0.3842;0.9908
3247440;2017-09-06;32474402017;0.1695;0.23;0.0894;0.846;0.6758;0.8755;0.6382;0.1761;0.5608;0.7037;0.5349;0.9015
3248401;2017-07-19;32484012017;0.055;0.0215;0.0188;0.5153;0.564;0.744;0.5694;0.1247;0.2834;0.3673;0.2393;0.8967
3249300;2017-07-19;32493002017;0.2313;0.064;0.0366;0.6319;0.5185;0.7813;0.5524;0.1596;0.3493;0.4173;0.2235;0.8721
3250430;2017-07-20;32504302017;0.1369;0.0231;0.0117;0.5142;0.3735;0.7049;0.7246;0.1425;0.1418;0.2945;0.0494;0.8691
3250475;2017-07-20;32504752017;0.079;0.0189;0.006;0.4683;0.4912;0.8335;0.6464;0.2108;0.1981;0.3537;0.0113;0.8904
3250572;2017-07-19;32505722017;0.4704;0.3645;0.1292;0.815;0.6956;0.8992;0.7395;0.1059;0.4455;0.6009;0.4718;0.9279
3250952;2017-09-06;32509522017;0.0723;0.0567;0.0291;0.6428;0.7148;0.9015;0.6683;0.2162;0.4471;0.4842;0.211;0.9793
3251190;2017-07-13;32511902017;0.0671;0.0244;0.0264;0.3325;0.3232;0.8614;0.339;0.4407;0.2209;0.3529;0.0872;0.9221
3251510;2017-07-13;32515102017;0.1122;0.0183;0.0137;0.59;0.4357;0.7455;0.6995;0.089;0.1175;0.3413;0.1594;0.866
3252755;2017-07-13;32527552017;0.1636;0.0674;0.0338;0.6409;0.3775;0.8286;0.611;0.1612;0.2444;0.4928;0.342;0.9239
3254035;2017-07-12;32540352017;0.0706;0.0745;0.0465;0.8507;0.5864;0.852;0.6709;0.1371;0.3582;0.6196;0.3305;0.9325
3254510;2017-07-11;32545102017;0.4747;0.2421;0.1473;0.9501;0.6041;0.7387;0.5166;0.1665;0.577;0.8437;0.4904;0.9532
3254685;2017-07-11;32546852017;0.6093;0.2913;0.198;0.8633;0.4993;0.8087;0.6288;0.1399;0.4344;0.6822;0.5979;0.832
3254770;2017-07-12;32547702017;0.5151;0.2778;0.1294;0.6508;0.3725;0.8697;0.734;0.2085;0.3207;0.4574;0.5438;0.7513
3255580;2017-07-12;32555802017;0.3471;0.0944;0.0342;0.4627;0.2696;0.7848;0.594;0.2912;0.2384;0.5147;0.508;0.8211
3257130;2017-07-10;32571302017;0.0728;0.0269;0.0154;0.8596;0.561;0.81;0.7244;0.0819;0.1702;0.5265;0.1151;0.9267
3260000;2017-07-11;32600002017;0.1534;0.0556;0.0335;0.5727;0.49;0.7406;0.6191;0.1677;0.2853;0.3079;0.1506;0.7415
3261600;2017-07-11;32616002017;0.1297;0.0209;0.0059;0.1197;0.4248;0.4974;0.5308;0.2853;0.2326;0.0788;0.5115;0.2934
3262000;2017-07-10;32620002017;0.106;0.0136;0.0087;0.7433;0.5121;0.5385;0.6204;0.053;0.2599;0.5849;0.5103;0.8173
3265240;2017-09-07;32652402017;0.1193;0.028;0.0274;0.4476;0.6335;0.731;0.6803;0.0498;0.1667;0.4411;0.3102;0.8464
3265385;2017-09-07;32653852017;0.1378;0.0449;0.0269;0.7416;0.578;0.7243;0.8163;0.1101;0.1805;0.4818;0.0612;0.9046
3265710;2017-09-07;32657102017;0.083;0.0123;0.0164;0.6393;0.5037;0.4649;0.7479;0.0203;0.0367;0.4151;0.2876;0.7534
3265996;2017-10-18;32659962017;0.2353;0.1686;0.0902;0.6528;0.6114;0.4743;0.6932;0.2312;0.3903;0.5643;0.2731;0.8344
3266920;2017-09-06;32669202017;0.2673;0.1243;0.0696;0.7171;0.4318;0.8101;0.6736;0.1158;0.2898;0.5179;0.3792;0.9335
3267530;2017-09-06;32675302017;0.4767;0.1456;0.0874;0.6012;0.4867;0.4238;0.5186;0.1878;0.2657;0.4901;0.6268;0.4797
3269250;2017-09-08;32692502017;0.0873;0.0111;0.0244;0.5235;0.5128;0.5215;0.473;0.0813;0.1639;0.2512;0.2754;0.7415
3269438;2017-07-07;32694382017;0.34;0.1059;0.0681;0.2986;0.4282;0.5721;0.5293;0.2322;0.3683;0.2723;0.5221;0.6173
3270000;2017-09-07;32700002017;0.1767;0.0215;0.0071;0.4605;0.3016;0.3936;0.631;0.0905;0.1192;0.202;0.0608;0.8768
3270390;2017-09-07;32703902017;0.1006;0.0182;0.0113;0.6573;0.5144;0.3606;0.7841;0.0457;0.056;0.1961;0.0815;0.8875
3271000;2017-09-08;32710002017;0.218;0.0429;0.0674;0.6677;0.6086;0.5796;0.6428;0.1133;0.2158;0.3237;0.0513;0.7548
3271215;2017-07-07;32712152017;0.1768;0.0387;0.0526;0.4584;0.4994;0.8007;0.6091;0.1415;0.2701;0.3671;0.3687;0.8871
3271415;2017-10-09;32714152017;0.1414;0.017;0.0148;0.3574;0.3978;0.3715;0.5219;0.1336;0.1915;0.2872;0.391;0.6716
3271437;2017-07-07;32714372017;0.181;0.0629;0.0213;0.7157;0.5135;0.7949;0.6058;0.1244;0.2522;0.4951;0.2301;0.8784
3271565;2017-07-07;32715652017;0.0798;0.0333;0.0181;0.3906;0.6038;0.7734;0.5245;0.2067;0.3632;0.3588;0.3225;0.851
3271590;2017-07-06;32715902017;0.1409;0.0535;0.0179;0.6768;0.6605;0.7028;0.6807;0.0778;0.2131;0.4731;0.4163;0.8134
3271820;2017-07-06;32718202017;0.2245;0.0727;0.0447;0.699;0.4654;0.6927;0.4821;0.1719;0.3121;0.5221;0.4195;0.6642
3271840;2017-07-06;32718402017;0.0705;0.0128;0.0073;0.3727;0.4312;0.7265;0.5685;0.1017;0.1365;0.2933;0.1393;0.843
3271965;2018-06-16;32719652018;0.2524;0.0306;0.0215;0.364;0.418;0.4735;0.5149;0.2928;0.2627;0.3821;0.2356;0.7311
3272060;2017-07-06;32720602017;0.2113;0.0111;0.011;0.36;0.3966;0.3133;0.4138;0.0725;0.1;0.2784;0.4117;0.369
3272235;2017-07-06;32722352017;0.5126;0.5276;0.5332;0.644;0.8223;0.8277;0.5764;0.3185;0.6302;0.5795;0.6373;0.9278
3272400;2017-07-05;32724002017;0.1111;0.037;0.0278;0.5149;0.4776;0.6908;0.4296;0.1334;0.2373;0.3292;0.1885;0.808
3272685;2017-10-10;32726852017;0.145;0.0379;0.0114;0.7141;0.6126;0.5574;0.6345;0.2153;0.3176;0.4629;0.158;0.9092
3273345;2017-07-05;32733452017;0.5609;0.6971;0.6202;0.5587;0.7409;0.8317;0.7696;0.5633;0.6706;0.4836;0.6445;0.8353
3274000;2017-07-05;32740002017;0.1136;0.0311;0.0265;0.5687;0.4576;0.4154;0.5298;0.067;0.1522;0.3954;0.2886;0.6583
3274420;2017-07-05;32744202017;0.1731;0.0508;0.0591;0.5385;0.5464;0.6753;0.6147;0.1804;0.2637;0.4811;0.2111;0.8019
3274440;2017-07-05;32744402017;0.3012;0.1438;0.0743;0.5206;0.6678;0.7124;0.4702;0.2036;0.4231;0.445;0.6256;0.7338
4110700;2017-07-10;41107002017;0.1597;0.0877;0.0447;0.6274;0.7161;0.7369;0.5462;0.206;0.4912;0.6314;0.5285;0.8922
4115580;2017-06-27;41155802017;0.0509;0.0373;0.0194;0.8714;0.6328;0.7376;0.6645;0.08;0.3329;0.6763;0.1519;0.9315
4115675;2017-06-27;41156752017;0.0535;0.0303;0.017;0.6439;0.6245;0.7137;0.6913;0.0973;0.1831;0.5353;0.119;0.8365
4123100;2017-07-11;41231002017;0.1693;0.0375;0.0076;0.4345;0.453;0.5799;0.5645;0.0828;0.2019;0.2339;0.3549;0.7865
4123760;2017-10-09;41237602017;0.2243;0.0987;0.0625;0.3192;0.3851;0.439;0.517;0.3492;0.2093;0.1596;0.3606;0.2977
