ODInvertebres;v1.0.1;2019-04-29;Temps d'execution :;41.1secs
CODE_STATION;DATE;CODE_OPERATION;MATIERES_ORGANIQUES;MATIERES_PHOSPHOREES;MATIERES_AZOTEES;NITRATES;HAP;PESTICIDES;RIPISYLVE;VOIES_COMMUNICATION;URBANISATION_100M;RISQUE_COLMATAGE;INSTABILITE_HYDROLOGIQUE;ANTHROPISATION_BV
3172150;2014-08-18;31721502014;0.3778;0.484;0.5283;0.5181;0.7048;0.7531;0.5293;0.5272;0.6821;0.5435;0.6905;0.7516
3172392;2014-07-28;31723922014;0.5618;0.5872;0.5793;0.6517;0.7682;0.7663;0.5546;0.4929;0.6796;0.5791;0.6658;0.8658
3173008;2014-07-28;31730082014;0.5979;0.6873;0.6806;0.7379;0.7517;0.8065;0.6256;0.5054;0.7943;0.6109;0.6439;0.9249
3174678;2014-08-21;31746782014;0.624;0.6033;0.5609;0.5404;0.6856;0.7297;0.5447;0.4935;0.5456;0.5452;0.7055;0.8238
3174695;2014-08-21;31746952014;0.4614;0.241;0.1356;0.6382;0.478;0.7995;0.5619;0.1888;0.3718;0.5672;0.6173;0.8892
3174712;2014-08-21;31747122014;0.3005;0.2339;0.2192;0.7534;0.5938;0.6507;0.6485;0.2757;0.4509;0.6217;0.708;0.8376
3174715;2014-08-20;31747152014;0.2854;0.1522;0.0732;0.747;0.5079;0.8104;0.7066;0.1386;0.303;0.5019;0.3467;0.9324
3174748;2014-08-20;31747482014;0.3733;0.2162;0.0813;0.5108;0.6056;0.7766;0.7311;0.1814;0.3297;0.48;0.4459;0.9137
3174795;2014-08-20;31747952014;0.2592;0.1943;0.1711;0.7852;0.6452;0.9065;0.7289;0.1875;0.4637;0.5768;0.4105;0.9292
3174825;2014-07-31;31748252014;0.2906;0.5171;0.3242;0.8866;0.8114;0.824;0.7358;0.3123;0.6909;0.7371;0.5021;0.8913
3174837;2014-08-19;31748372014;0.0929;0.069;0.016;0.9319;0.7592;0.8282;0.6957;0.1727;0.5056;0.7235;0.1246;0.9758
3175000;2014-08-19;31750002014;0.0651;0.0664;0.0343;0.9763;0.6709;0.774;0.7;0.0958;0.3584;0.8304;0.0598;0.9261
3175500;2014-08-19;31755002014;0.0401;0.0146;0.0056;0.9808;0.6341;0.8631;0.5645;0.03;0.2732;0.8395;0.2833;0.9835
3176360;2014-08-18;31763602014;0.1559;0.133;0.0883;0.7488;0.7696;0.636;0.6465;0.2015;0.5974;0.7385;0.5583;0.9075
3176473;2014-08-20;31764732014;0.1508;0.1502;0.0549;0.968;0.7468;0.8354;0.4487;0.098;0.5984;0.9172;0.5028;0.9821
3176680;2014-08-20;31766802014;0.2909;0.1918;0.0745;0.8176;0.7522;0.7739;0.6086;0.1584;0.5097;0.6852;0.673;0.8863
3176745;2014-08-20;31767452014;0.055;0.064;0.0282;0.9941;0.7136;0.8508;0.5422;0.077;0.5758;0.8862;0.3;0.9814
3176850;2014-08-21;31768502014;0.0732;0.1052;0.0311;0.7995;0.7258;0.5338;0.5863;0.0841;0.6416;0.7579;0.5359;0.7407
3176880;2014-08-21;31768802014;0.5184;0.7431;0.5942;0.9035;0.9625;0.9683;0.7939;0.1645;0.7103;0.7914;0.4634;0.9954
3176945;2014-08-20;31769452014;0.3521;0.2494;0.163;0.7356;0.7278;0.4588;0.6141;0.1323;0.6137;0.8221;0.5772;0.8263
3177745;2014-08-19;31777452014;0.1171;0.1135;0.051;0.7786;0.7618;0.6904;0.6545;0.1428;0.5169;0.6938;0.5066;0.9097
3177760;2014-08-19;31777602014;0.0783;0.0838;0.0482;0.8196;0.8227;0.77;0.4999;0.1071;0.5773;0.7164;0.5797;0.9447
3177889;2014-08-19;31778892014;0.5132;0.4814;0.3094;0.8463;0.5894;0.6837;0.458;0.2645;0.5973;0.7346;0.5511;0.8613
3178000;2014-08-18;31780002014;0.2071;0.2527;0.1657;0.7132;0.5249;0.588;0.414;0.3647;0.5809;0.6904;0.4794;0.7458
3178319;2014-07-31;31783192014;0.5297;0.5451;0.5091;0.7436;0.6961;0.6716;0.5796;0.308;0.6215;0.6541;0.6288;0.8133
3178348;2014-07-31;31783482014;0.5597;0.5486;0.5298;0.7191;0.7928;0.736;0.6153;0.2233;0.5559;0.6624;0.6001;0.7843
3178469;2014-07-30;31784692014;0.496;0.3422;0.5086;0.4872;0.6561;0.6467;0.5159;0.4867;0.6818;0.46;0.5942;0.648
3178520;2014-07-30;31785202014;0.1325;0.0537;0.0186;0.8521;0.7781;0.4774;0.4847;0.0549;0.4732;0.8591;0.6045;0.8931
3178660;2014-07-18;31786602014;0.0159;0.0162;0.0176;0.4239;0.6944;0.5249;0.5583;0.1168;0.3251;0.3551;0.3909;0.8112
3178835;2014-07-18;31788352014;0.1004;0.1043;0.0512;0.874;0.7541;0.4252;0.7105;0.0805;0.5766;0.8093;0.6015;0.7385
3179000;2014-07-30;31790002014;0.0213;0.0291;0.0109;0.9694;0.8717;0.5634;0.7224;0.0447;0.6719;0.936;0.4746;0.9651
3179556;2014-09-08;31795562014;0.1718;0.1208;0.1144;0.8928;0.748;0.4121;0.6962;0.117;0.7397;0.791;0.5277;0.8137
3179690;2014-10-10;31796902014;0.0542;0.0575;0.032;0.8023;0.7236;0.364;0.7159;0.0537;0.4444;0.6004;0.406;0.7401
3179740;2014-07-30;31797402014;0.3647;0.5096;0.5451;0.7163;0.6896;0.755;0.5865;0.3956;0.7048;0.6524;0.598;0.9221
3180100;2014-07-29;31801002014;0.1217;0.0553;0.0321;0.8727;0.7593;0.5215;0.6746;0.0934;0.6416;0.8415;0.4304;0.9252
3181000;2014-09-11;31810002014;0.0413;0.0508;0.0326;0.8185;0.672;0.465;0.6917;0.0996;0.5258;0.6732;0.3965;0.8566
3182000;2014-07-29;31820002014;0.21;0.2419;0.2577;0.8138;0.7623;0.5715;0.6859;0.2379;0.7574;0.7494;0.5607;0.8593
3182100;2014-07-29;31821002014;0.075;0.1005;0.0879;0.9466;0.7978;0.5341;0.7261;0.1314;0.7503;0.8224;0.6108;0.94
3182415;2014-09-08;31824152014;0.1868;0.2422;0.4272;0.5427;0.6746;0.6825;0.476;0.3422;0.6241;0.5811;0.6424;0.7177
3187000;2014-08-04;31870002014;0.2728;0.4523;0.0723;0.6559;0.5398;0.8905;0.7349;0.2959;0.4811;0.5655;0.2051;0.9519
3188590;2014-09-15;31885902014;0.6494;0.7212;0.7282;0.608;0.7007;0.9214;0.6813;0.3582;0.7851;0.5763;0.6012;0.934
3189000;2014-08-07;31890002014;0.3087;0.2158;0.0519;0.9631;0.6214;0.7419;0.4285;0.1365;0.5872;0.9324;0.5331;0.9546
3189167;2014-09-15;31891672014;0.5374;0.5401;0.5259;0.811;0.6753;0.7545;0.6041;0.2774;0.6913;0.7608;0.5947;0.8837
3189210;2014-08-07;31892102014;0.5314;0.7942;0.593;0.8168;0.8904;0.9903;0.8855;0.138;0.6376;0.6867;0.4267;0.9929
3189300;2014-08-06;31893002014;0.4528;0.6243;0.5185;0.8284;0.8014;0.9296;0.8303;0.2862;0.6769;0.7452;0.3885;0.9756
3189313;2014-08-06;31893132014;0.1613;0.2247;0.2002;0.8581;0.7771;0.7627;0.595;0.2684;0.638;0.7795;0.5211;0.9473
3189395;2014-08-05;31893952014;0.5829;0.5484;0.5041;0.7524;0.5776;0.8948;0.6595;0.2733;0.5568;0.5206;0.4194;0.914
3189490;2014-08-04;31894902014;0.7239;0.7272;0.605;0.6375;0.5889;0.9424;0.7463;0.275;0.6051;0.5858;0.576;0.9084
3189642;2014-08-05;31896422014;0.5164;0.3783;0.1454;0.936;0.662;0.7328;0.4829;0.1417;0.5527;0.8661;0.5059;0.9637
3189975;2014-08-05;31899752014;0.2657;0.2092;0.128;0.8372;0.6342;0.6607;0.4532;0.3143;0.5966;0.8391;0.3909;0.8463
3190080;2014-10-02;31900802014;0.4072;0.3734;0.2315;0.8386;0.5484;0.6357;0.3943;0.3347;0.6282;0.798;0.496;0.9041
3190636;2014-08-05;31906362014;0.3539;0.5309;0.5227;0.7056;0.7681;0.6483;0.6405;0.5221;0.6716;0.6001;0.7365;0.879
3190719;2014-09-18;31907192014;0.2113;0.1959;0.0876;0.8892;0.5311;0.788;0.6176;0.1163;0.5572;0.7966;0.5324;0.9473
3190725;2014-09-18;31907252014;0.2773;0.1497;0.0439;0.9477;0.6563;0.9035;0.585;0.0848;0.4756;0.854;0.3173;0.9855
3190790;2014-08-06;31907902014;0.4088;0.1744;0.0562;0.9291;0.5512;0.8509;0.4728;0.0823;0.461;0.8808;0.3921;0.9619
3191372;2014-09-12;31913722014;0.0401;0.064;0.0194;0.9683;0.6677;0.8645;0.6034;0.1486;0.569;0.852;0.3193;0.9831
3191700;2014-07-31;31917002014;0.0876;0.1106;0.0628;0.9113;0.5968;0.763;0.3863;0.2446;0.5382;0.848;0.2678;0.8835
3192378;2014-08-21;31923782014;0.6506;0.6186;0.5914;0.5885;0.5828;0.5616;0.5296;0.5065;0.6316;0.613;0.6842;0.7091
3194350;2014-08-04;31943502014;0.4612;0.1598;0.059;0.6996;0.4851;0.8363;0.7174;0.0995;0.3021;0.4797;0.2015;0.9478
3194620;2014-08-05;31946202014;0.0659;0.0561;0.0329;0.9429;0.7387;0.4852;0.5419;0.0804;0.4876;0.8451;0.4278;0.8781
3196000;2014-08-05;31960002014;0.066;0.0927;0.0312;0.9697;0.689;0.824;0.624;0.1168;0.5178;0.8098;0.3179;0.9417
3197000;2014-07-28;31970002014;0.1318;0.1204;0.0326;0.8616;0.6521;0.7298;0.6289;0.2228;0.498;0.7377;0.2154;0.9001
3198000;2014-08-01;31980002014;0.1078;0.1306;0.0733;0.9579;0.6543;0.7241;0.5231;0.246;0.5744;0.8513;0.1468;0.888
3198530;2014-07-31;31985302014;0.0937;0.04;0.0283;0.9764;0.6904;0.5266;0.5618;0.0521;0.5099;0.9613;0.4623;0.9682
3199200;2014-07-31;31992002014;0.0954;0.0506;0.0229;0.9692;0.6977;0.6896;0.5798;0.0392;0.4301;0.8529;0.3086;0.948
3200070;2014-07-30;32000702014;0.0562;0.0301;0.0083;0.9132;0.6484;0.7776;0.5879;0.0274;0.4852;0.8224;0.3708;0.965
3200435;2014-09-09;32004352014;0.1956;0.4295;0.3359;0.8878;0.8393;0.6253;0.6272;0.3808;0.8181;0.8115;0.5763;0.9288
3201260;2014-09-10;32012602014;0.0812;0.042;0.0314;0.8997;0.8263;0.4621;0.7101;0.064;0.7118;0.8583;0.4378;0.8594
3201650;2014-09-10;32016502014;0.324;0.3908;0.24;0.8585;0.8349;0.6169;0.6151;0.2097;0.6966;0.7955;0.6209;0.9302
3202250;2014-09-11;32022502014;0.0617;0.069;0.0588;0.8702;0.8108;0.494;0.705;0.0742;0.7926;0.8366;0.5328;0.8648
3203050;2014-09-19;32030502014;0.0793;0.1193;0.0709;0.885;0.8486;0.5435;0.6951;0.1073;0.8674;0.8424;0.5869;0.894
3203750;2014-09-09;32037502014;0.2236;0.2098;0.1668;0.8962;0.7986;0.4719;0.722;0.1839;0.7726;0.8551;0.5383;0.8046
3204000;2014-09-09;32040002014;0.0936;0.1322;0.0878;0.9589;0.7932;0.537;0.716;0.1522;0.7426;0.8829;0.5521;0.9274
3205000;2014-09-10;32050002014;0.2531;0.3719;0.2145;0.7377;0.7967;0.5757;0.5306;0.2966;0.6904;0.7188;0.6607;0.8658
3206150;2014-09-10;32061502014;0.4542;0.6345;0.5845;0.7156;0.8472;0.7502;0.531;0.5187;0.7561;0.5896;0.7319;0.9014
3206350;2014-09-10;32063502014;0.484;0.7495;0.664;0.7039;0.8366;0.8465;0.7516;0.4205;0.7816;0.5948;0.6543;0.9506
3207020;2014-09-11;32070202014;0.5205;0.6455;0.562;0.6917;0.8057;0.8184;0.606;0.4222;0.7846;0.6762;0.5583;0.966
3207220;2014-09-18;32072202014;0.0801;0.0255;0.0175;0.7929;0.7442;0.3702;0.5349;0.0802;0.4681;0.7266;0.5529;0.8465
3207610;2014-09-18;32076102014;0.0708;0.0242;0.0042;0.9215;0.7579;0.4871;0.6772;0.0365;0.3914;0.7491;0.4332;0.8866
3208000;2014-09-18;32080002014;0.0732;0.0491;0.0231;0.8583;0.7685;0.5575;0.6621;0.0502;0.4316;0.6849;0.3048;0.8453
3208520;2014-09-18;32085202014;0.048;0.058;0.0222;0.9394;0.7706;0.5034;0.6521;0.0859;0.5043;0.9167;0.4612;0.9389
3210050;2014-09-17;32100502014;0.1452;0.0685;0.0215;0.872;0.7;0.4501;0.6206;0.142;0.5959;0.7428;0.5246;0.9088
3210200;2014-09-16;32102002014;0.135;0.0982;0.0532;0.8955;0.7391;0.6278;0.6523;0.1055;0.6354;0.8718;0.6635;0.9329
3210327;2014-07-23;32103272014;0.1785;0.1417;0.0618;0.7209;0.7874;0.6836;0.6655;0.2139;0.6141;0.6446;0.7001;0.9275
3210423;2014-09-16;32104232014;0.1628;0.0841;0.0489;0.8379;0.6464;0.5657;0.7444;0.0799;0.3127;0.6288;0.3095;0.8994
3210572;2014-04-24;32105722014;0.0645;0.0238;0.0101;0.6758;0.548;0.6961;0.6505;0.0346;0.1662;0.5346;0.273;0.8854
3210600;2014-07-24;32106002014;0.06;0.0368;0.0102;0.8802;0.6927;0.7455;0.7669;0.0592;0.3627;0.5668;0.1733;0.9259
3210660;2014-07-23;32106602014;0.0495;0.0518;0.0246;0.8663;0.7475;0.4526;0.678;0.0342;0.4173;0.6392;0.4541;0.8526
3211000;2014-09-17;32110002014;0.0693;0.07;0.0565;0.9413;0.8306;0.531;0.6709;0.1199;0.5311;0.7638;0.2837;0.9473
3211430;2014-09-17;32114302014;0.0881;0.0275;0.0156;0.8379;0.7295;0.6222;0.7052;0.132;0.3375;0.6096;0.065;0.9303
3212090;2014-09-17;32120902014;0.1617;0.1313;0.101;0.8191;0.6531;0.5747;0.4966;0.2343;0.5039;0.7326;0.3582;0.8001
3212150;2014-07-07;32121502014;0.0704;0.136;0.0543;0.9093;0.8209;0.5764;0.6672;0.1192;0.6977;0.8459;0.6491;0.9447
3212600;2014-07-03;32126002014;0.0876;0.041;0.0141;0.8502;0.6921;0.4552;0.61;0.0459;0.549;0.7478;0.3563;0.854
3213000;2014-09-16;32130002014;0.0708;0.043;0.0177;0.8177;0.708;0.5191;0.5502;0.0839;0.5088;0.6937;0.3869;0.8731
3213185;2014-07-02;32131852014;0.1884;0.0492;0.0182;0.7923;0.7214;0.432;0.6605;0.115;0.5412;0.7422;0.5952;0.8309
3213230;2014-07-02;32132302014;0.0496;0.0188;0.0122;0.7907;0.7556;0.3912;0.6351;0.0598;0.4875;0.6947;0.4979;0.9274
3213480;2014-09-10;32134802014;0.085;0.0242;0.0085;0.8836;0.6805;0.4727;0.5737;0.0191;0.3757;0.7216;0.4537;0.7597
3213505;2014-07-03;32135052014;0.3514;0.1293;0.0663;0.5273;0.6986;0.6218;0.5088;0.1732;0.4533;0.5495;0.5987;0.8048
3213830;2014-09-09;32138302014;0.0757;0.0748;0.0227;0.822;0.748;0.3915;0.5666;0.0739;0.502;0.7345;0.5418;0.7102
3214240;2014-07-08;32142402014;0.2253;0.3694;0.3124;0.8173;0.796;0.5328;0.681;0.198;0.7585;0.845;0.5879;0.9264
3215000;2014-07-10;32150002014;0.125;0.1367;0.0738;0.8643;0.8483;0.6548;0.7358;0.1602;0.7756;0.8581;0.502;0.8661
3216000;2014-09-09;32160002014;0.2584;0.2711;0.2153;0.7692;0.6504;0.3977;0.6374;0.2905;0.6473;0.6899;0.4796;0.5816
3216160;2014-09-09;32161602014;0.4016;0.619;0.6265;0.6474;0.872;0.7761;0.5876;0.4859;0.6514;0.5763;0.6313;0.9004
3216250;2014-07-08;32162502014;0.2088;0.4257;0.5012;0.4548;0.6701;0.7096;0.4704;0.5432;0.7078;0.459;0.5272;0.7661
3216310;2014-07-10;32163102014;0.1285;0.1455;0.1066;0.9321;0.7809;0.4619;0.6587;0.1761;0.7481;0.8668;0.5849;0.9227
3217000;2014-07-09;32170002014;0.1154;0.1007;0.0605;0.9471;0.7729;0.5443;0.7022;0.1473;0.73;0.867;0.4901;0.8998
3217400;2014-07-09;32174002014;0.1683;0.1381;0.065;0.8799;0.8533;0.5139;0.7245;0.1047;0.7571;0.8792;0.5829;0.9342
3218150;2014-07-09;32181502014;0.053;0.0642;0.0349;0.9742;0.8648;0.6815;0.796;0.0748;0.8267;0.9692;0.5586;0.972
3219000;2014-10-01;32190002014;0.5883;0.6193;0.5579;0.7115;0.6343;0.8931;0.6939;0.358;0.7295;0.5743;0.4386;0.946
3219550;2014-07-29;32195502014;0.1616;0.126;0.1018;0.656;0.748;0.8653;0.5522;0.2015;0.493;0.546;0.4212;0.9555
3219780;2014-07-28;32197802014;0.0983;0.1007;0.0317;0.7272;0.6522;0.7312;0.7372;0.1707;0.3804;0.5573;0.0917;0.8981
3221500;2014-07-30;32215002014;0.0687;0.096;0.0179;0.955;0.7233;0.7522;0.6404;0.1136;0.4648;0.8856;0.2766;0.942
3222480;2014-07-29;32224802014;0.1443;0.0327;0.0193;0.8111;0.6057;0.4331;0.5684;0.0561;0.1929;0.6438;0.3453;0.8264
3222780;2014-06-16;32227802014;0.0801;0.0437;0.0234;0.7567;0.5963;0.4424;0.7088;0.0235;0.2044;0.5545;0.4126;0.7495
3223200;2014-07-29;32232002014;0.0217;0.0192;0.0073;0.8894;0.7325;0.8021;0.7452;0.0405;0.2091;0.6182;0.076;0.943
3223500;2014-07-30;32235002014;0.1344;0.1341;0.0936;0.9365;0.7386;0.459;0.5854;0.1331;0.5278;0.9261;0.4818;0.8679
3224407;2014-09-11;32244072014;0.1218;0.0652;0.0462;0.7599;0.7271;0.4195;0.6308;0.1608;0.5517;0.6606;0.5448;0.6478
3224955;2014-09-11;32249552014;0.07;0.0668;0.0332;0.8833;0.7655;0.4392;0.7222;0.1012;0.543;0.7464;0.4331;0.8456
3224975;2014-09-18;32249752014;0.0644;0.0243;0.0061;0.7833;0.7295;0.4386;0.6537;0.0638;0.4482;0.5605;0.4284;0.7265
3225015;2014-09-16;32250152014;0.2692;0.1102;0.0464;0.7753;0.7159;0.4586;0.5615;0.1629;0.4718;0.6841;0.6602;0.7954
3225030;2014-09-18;32250302014;0.0868;0.0734;0.0704;0.8949;0.7767;0.5809;0.7072;0.124;0.5942;0.7962;0.5679;0.9185
3225040;2014-09-17;32250402014;0.0748;0.0797;0.0488;0.6846;0.703;0.4256;0.6846;0.1841;0.4668;0.5235;0.3687;0.6763
3225062;2014-09-17;32250622014;0.0895;0.0385;0.0118;0.7803;0.7905;0.5515;0.704;0.055;0.3933;0.7347;0.5227;0.8573
3225150;2014-09-17;32251502014;0.0328;0.0498;0.0177;0.8829;0.7986;0.4836;0.7464;0.0561;0.5532;0.6424;0.3784;0.7964
3226000;2014-10-07;32260002014;0.2639;0.0495;0.0337;0.3613;0.4687;0.3066;0.5512;0.2806;0.2196;0.2641;0.2981;0.4869
3226300;2014-10-08;32263002014;0.1319;0.0579;0.0269;0.561;0.6432;0.4166;0.6037;0.2032;0.2988;0.4586;0.196;0.7454
3226540;2014-10-08;32265402014;0.1062;0.101;0.1021;0.7789;0.7371;0.7118;0.6016;0.1952;0.5181;0.658;0.5024;0.9064
3226640;2014-06-23;32266402014;0.0228;0.0183;0.004;0.7776;0.6859;0.6587;0.7015;0.0262;0.3378;0.5187;0.2764;0.813
3226720;2014-10-08;32267202014;0.117;0.1176;0.0503;0.7924;0.7646;0.3491;0.6772;0.1222;0.5166;0.6843;0.4446;0.7471
3227010;2014-10-06;32270102014;0.0755;0.0355;0.0203;0.8554;0.7142;0.6232;0.7598;0.0971;0.3062;0.6423;0.087;0.9167
3227100;2014-10-09;32271002014;0.1047;0.0614;0.0342;0.7114;0.6799;0.3079;0.7349;0.0874;0.2807;0.4125;0.4402;0.6668
3227296;2014-10-06;32272962014;0.1025;0.0457;0.0097;0.5659;0.5657;0.4474;0.6898;0.0839;0.1631;0.3342;0.2964;0.6765
3227770;2014-08-04;32277702014;0.0434;0.0234;0.0095;0.9016;0.7106;0.6767;0.712;0.034;0.393;0.5696;0.2578;0.9207
3228440;2014-06-23;32284402014;0.2387;0.1063;0.0717;0.8365;0.7611;0.6731;0.5855;0.1194;0.5351;0.5676;0.5365;0.8661
3228690;2014-10-01;32286902014;0.135;0.1012;0.0325;0.7243;0.7413;0.3764;0.6677;0.1585;0.4049;0.6014;0.3322;0.7139
3230000;2014-08-05;32300002014;0.0551;0.072;0.0379;0.8977;0.717;0.788;0.7067;0.0988;0.5035;0.8063;0.4398;0.9303
3230760;2014-08-05;32307602014;0.0709;0.126;0.0246;0.97;0.6872;0.5943;0.5771;0.1008;0.6379;0.8787;0.5304;0.9289
3231490;2014-08-05;32314902014;0.1707;0.0717;0.043;0.7479;0.658;0.5792;0.6802;0.0579;0.2732;0.5976;0.5045;0.7991
3231740;2014-10-01;32317402014;0.2504;0.0905;0.0268;0.3683;0.4758;0.2599;0.6042;0.2524;0.2658;0.2981;0.3452;0.4637
3232080;2014-10-01;32320802014;0.0909;0.0372;0.0356;0.6739;0.6224;0.4616;0.7209;0.0448;0.1763;0.4824;0.2773;0.7217
3232450;2014-10-07;32324502014;0.1304;0.1083;0.0171;0.7543;0.7411;0.5286;0.8573;0.0764;0.2181;0.5026;0.077;0.8242
3232950;2014-10-07;32329502014;0.1369;0.0788;0.0351;0.6852;0.6253;0.4681;0.801;0.0549;0.1467;0.512;0.351;0.7143
3233896;2014-09-03;32338962014;0.0743;0.0233;0.0209;0.6627;0.4069;0.6225;0.6469;0.1218;0.2128;0.5832;0.2461;0.8991
3233980;2014-09-10;32339802014;0.0814;0.0892;0.0257;0.8111;0.6774;0.7052;0.7494;0.121;0.3062;0.6256;0.1836;0.7552
3234215;2014-09-03;32342152014;0.2045;0.1554;0.1101;0.7501;0.5816;0.6736;0.6268;0.1695;0.5131;0.6955;0.7136;0.7697
3234275;2014-10-02;32342752014;0.2334;0.3178;0.2146;0.7854;0.564;0.6513;0.5046;0.4771;0.5842;0.5912;0.5098;0.8275
3234650;2014-09-30;32346502014;0.1083;0.0463;0.0264;0.5943;0.6041;0.6904;0.5442;0.3029;0.3713;0.5229;0.146;0.9265
3234956;2014-07-02;32349562014;0.1001;0.0052;0.0091;0.1234;0.4564;0.569;0.5019;0.1595;0.2018;0.1464;0.3983;0.3796
3236395;2014-09-11;32363952014;0.1724;0.1402;0.1064;0.6111;0.3815;0.734;0.338;0.4529;0.3344;0.5344;0.1998;0.6928
3236730;2014-09-30;32367302014;0.1652;0.0834;0.0405;0.6275;0.5358;0.3443;0.6843;0.1143;0.1535;0.5152;0.5063;0.5251
3240000;2014-10-02;32400002014;0.5382;0.3929;0.2206;0.6023;0.6818;0.8891;0.5293;0.1971;0.4638;0.5065;0.5299;0.9472
3240100;2014-09-10;32401002014;0.1201;0.0401;0.0111;0.9471;0.7305;0.8379;0.8423;0.0369;0.1638;0.6202;0.2524;0.9543
3241000;2014-09-29;32410002014;0.3014;0.0602;0.0984;0.5312;0.5142;0.3508;0.5389;0.183;0.2087;0.4014;0.376;0.585
3241170;2014-07-02;32411702014;0.031;0.0033;0.0024;0.0959;0.4989;0.5427;0.5128;0.0646;0.0976;0.0926;0.2067;0.3581
3241590;2014-09-11;32415902014;0.1728;0.0444;0.0274;0.6193;0.473;0.3999;0.7783;0.1047;0.1329;0.2338;0.1469;0.8483
3241920;2014-09-29;32419202014;0.0711;0.0569;0.0065;0.7324;0.7408;0.5361;0.8656;0.1054;0.2639;0.4575;0.0643;0.9337
3241957;2014-09-12;32419572014;0.056;0.0459;0.0115;0.7791;0.7356;0.7156;0.7578;0.0542;0.149;0.3123;0.0506;0.9336
3244460;2014-09-30;32444602014;0.0814;0.0315;0.0118;0.8339;0.7334;0.4831;0.6523;0.0339;0.2215;0.5637;0.3269;0.845
3244725;2014-09-30;32447252014;0.0761;0.084;0.0245;0.8553;0.733;0.5997;0.73;0.0793;0.4537;0.6883;0.4101;0.8517
3245100;2014-08-29;32451002014;0.0582;0.0634;0.0279;0.8624;0.7192;0.6212;0.7572;0.0718;0.3142;0.6302;0.2382;0.857
3246000;2014-08-28;32460002014;0.1031;0.1705;0.0565;0.9075;0.6356;0.8151;0.6533;0.1582;0.4358;0.7205;0.2927;0.9209
3246300;2014-08-28;32463002014;0.489;0.2126;0.1051;0.8488;0.6435;0.5582;0.5469;0.1666;0.5064;0.7653;0.6498;0.8409
3246920;2014-08-05;32469202014;0.133;0.095;0.0394;0.9326;0.647;0.6268;0.6326;0.0768;0.3458;0.7781;0.3991;0.9114
3247140;2014-08-04;32471402014;0.0749;0.0595;0.0248;0.8206;0.4937;0.8616;0.7004;0.085;0.3023;0.6991;0.5705;0.9699
3247210;2014-09-22;32472102014;0.172;0.0775;0.0217;0.5969;0.4719;0.463;0.7741;0.0908;0.164;0.4339;0.2035;0.798
3247275;2014-08-04;32472752014;0.068;0.0475;0.0417;0.9569;0.6394;0.8811;0.6915;0.1306;0.3915;0.6868;0.1914;0.9586
3247405;2014-08-05;32474052014;0.2182;0.146;0.0807;0.9664;0.8029;0.7196;0.6023;0.0971;0.5358;0.8754;0.6066;0.9538
3247475;2014-08-05;32474752014;0.1581;0.1323;0.0685;0.9362;0.7723;0.8771;0.6653;0.1559;0.6131;0.8199;0.4752;0.9771
3248401;2014-09-23;32484012014;0.0369;0.0091;0.0016;0.2434;0.5359;0.6212;0.5201;0.0745;0.18;0.2137;0.2496;0.7356
3249300;2014-10-06;32493002014;0.261;0.2117;0.1248;0.6642;0.7698;0.7949;0.6251;0.2268;0.5177;0.4865;0.4441;0.9252
3250430;2014-10-09;32504302014;0.2932;0.0437;0.0203;0.4758;0.4613;0.3853;0.7352;0.1653;0.1881;0.199;0.1701;0.8326
3250475;2014-10-09;32504752014;0.3801;0.1739;0.1597;0.5029;0.5664;0.6464;0.5799;0.4818;0.4009;0.3541;0.127;0.6711
3251715;2014-08-05;32517152014;0.0545;0.0336;0.019;0.8579;0.8559;0.8821;0.7744;0.0882;0.5761;0.6173;0.5569;0.979
3252755;2014-08-04;32527552014;0.3715;0.2004;0.1062;0.7459;0.4948;0.8318;0.7516;0.1985;0.349;0.5723;0.4871;0.8685
3253780;2014-09-03;32537802014;0.1472;0.0717;0.015;0.7681;0.723;0.5011;0.7605;0.073;0.2541;0.4092;0.2308;0.6995
3254770;2014-07-16;32547702014;0.4477;0.3909;0.2471;0.7394;0.5747;0.8097;0.63;0.2635;0.5162;0.6798;0.7407;0.9071
3255580;2014-07-04;32555802014;0.1133;0.0446;0.0184;0.9209;0.567;0.8891;0.7804;0.07;0.2687;0.6556;0.2289;0.96
3255785;2014-08-05;32557852014;0.0475;0.0175;0.0247;0.8128;0.6382;0.6079;0.801;0.021;0.1191;0.4471;0.2405;0.8344
3257410;2014-07-16;32574102014;0.092;0.0445;0.0127;0.8454;0.6524;0.8881;0.8174;0.0763;0.2435;0.6048;0.2696;0.9367
3257800;2014-07-17;32578002014;0.0725;0.0687;0.072;0.7537;0.6514;0.7532;0.5231;0.1087;0.5186;0.5077;0.3937;0.8566
3258300;2014-07-17;32583002014;0.0604;0.0802;0.0425;0.9423;0.7136;0.5884;0.724;0.0528;0.6108;0.793;0.4748;0.8934
3260000;2014-07-15;32600002014;0.1241;0.0649;0.0407;0.8428;0.6305;0.8358;0.6649;0.1277;0.3305;0.4746;0.2043;0.8853
3261600;2014-06-30;32616002014;0.0737;0.0074;0.0052;0.1507;0.3484;0.4443;0.5768;0.2636;0.1147;0.0985;0.5397;0.2713
3262000;2014-07-15;32620002014;0.0738;0.0443;0.0258;0.8253;0.6549;0.4795;0.6505;0.0735;0.5585;0.6279;0.4592;0.81
3264965;2014-09-04;32649652014;0.1783;0.1058;0.0582;0.7737;0.667;0.8137;0.786;0.1464;0.2766;0.4897;0.0899;0.873
3265600;2014-09-04;32656002014;0.1953;0.0889;0.0528;0.6609;0.6327;0.7826;0.6478;0.1749;0.2252;0.2914;0.0568;0.7616
3265710;2014-06-30;32657102014;0.0638;0.0062;0.0066;0.5823;0.531;0.4452;0.6637;0.0232;0.1348;0.4426;0.3886;0.6695
3265993;2014-09-05;32659932014;0.1364;0.058;0.0209;0.807;0.6809;0.7135;0.8244;0.0608;0.1555;0.4151;0.1378;0.8804
3266350;2014-10-08;32663502014;0.1851;0.1163;0.0414;0.8077;0.733;0.6748;0.7748;0.0745;0.2386;0.5061;0.5137;0.9107
3266826;2014-09-04;32668262014;0.0595;0.0107;0.0028;0.8065;0.5504;0.6482;0.7411;0.0116;0.1178;0.4663;0.1813;0.911
3267530;2014-10-08;32675302014;0.4511;0.1431;0.1154;0.6378;0.5594;0.3536;0.5266;0.2335;0.3782;0.5625;0.6234;0.5002
3267850;2014-10-07;32678502014;0.193;0.0506;0.0386;0.7002;0.6615;0.5956;0.7419;0.0619;0.2651;0.4953;0.4308;0.8352
3269000;2014-10-07;32690002014;0.104;0.0636;0.0454;0.7498;0.791;0.4137;0.7604;0.0467;0.2215;0.4726;0.3216;0.8254
3269438;2014-09-24;32694382014;0.1936;0.0326;0.0277;0.3047;0.4289;0.479;0.5366;0.2225;0.2809;0.1597;0.4457;0.4934
3270000;2014-09-25;32700002014;0.164;0.0546;0.0296;0.5167;0.3549;0.4522;0.5966;0.2268;0.1822;0.1255;0.1179;0.5787
3270390;2014-09-25;32703902014;0.1969;0.0425;0.022;0.561;0.4265;0.3505;0.666;0.1849;0.1228;0.1022;0.1223;0.7519
3270840;2014-10-07;32708402014;0.4847;0.4939;0.509;0.5296;0.7669;0.7921;0.535;0.4758;0.5726;0.5339;0.6583;0.7999
3271000;2014-09-26;32710002014;0.2137;0.0161;0.0127;0.4303;0.4899;0.5897;0.4377;0.1534;0.2002;0.1495;0.0586;0.7841
3271360;2014-09-24;32713602014;0.1303;0.0825;0.097;0.4465;0.686;0.8237;0.5971;0.1295;0.415;0.4337;0.4434;0.8013
3271415;2014-09-23;32714152014;0.0988;0.0119;0.0107;0.244;0.5521;0.5914;0.4017;0.1347;0.222;0.1884;0.2055;0.7094
3271437;2014-09-23;32714372014;0.1919;0.0832;0.0695;0.4797;0.5645;0.5236;0.516;0.2596;0.2973;0.3646;0.2369;0.7787
3271820;2014-09-24;32718202014;0.3423;0.2875;0.1792;0.5987;0.5357;0.6914;0.5056;0.4127;0.5094;0.5345;0.565;0.679
3271965;2014-09-24;32719652014;0.2336;0.0527;0.0524;0.363;0.4679;0.4802;0.5647;0.2443;0.3034;0.5102;0.3999;0.7417
3272685;2014-09-25;32726852014;0.0444;0.045;0.0171;0.6641;0.5762;0.8657;0.6219;0.2701;0.3771;0.5208;0.1078;0.9787
4110700;2014-07-30;41107002014;0.2274;0.1082;0.0618;0.6009;0.6936;0.6606;0.5272;0.2112;0.5237;0.5937;0.5678;0.8907
4110790;2014-07-30;41107902014;0.1659;0.2199;0.1056;0.5428;0.651;0.7601;0.663;0.2689;0.4759;0.5144;0.6062;0.8061
4112300;2014-07-31;41123002014;0.0787;0.0341;0.0257;0.7602;0.535;0.6175;0.7582;0.0511;0.138;0.3863;0.1601;0.8707
4115525;2014-07-29;41155252014;0.1325;0.1146;0.0892;0.7612;0.6582;0.7532;0.7032;0.1254;0.3696;0.6516;0.5103;0.9188
4115540;2014-07-30;41155402014;0.3037;0.1815;0.125;0.7437;0.6324;0.632;0.5504;0.162;0.4833;0.6878;0.5675;0.8348
4115580;2014-07-29;41155802014;0.0961;0.0414;0.0241;0.3893;0.5735;0.8115;0.5667;0.3561;0.3576;0.3309;0.0807;0.8519
4115675;2014-07-29;41156752014;0.1037;0.0362;0.0262;0.769;0.6054;0.7604;0.5395;0.1088;0.3443;0.665;0.2727;0.9183
4116400;2014-07-28;41164002014;0.0653;0.0846;0.1035;0.8051;0.7738;0.7807;0.6943;0.1647;0.5612;0.6407;0.3066;0.9341
4123100;2014-06-11;41231002014;0.0504;0.0096;0.0031;0.2962;0.4192;0.6052;0.4213;0.1769;0.2675;0.1917;0.1622;0.7089
4123400;2014-07-01;41234002014;0.1157;0.0192;0.0089;0.4602;0.5178;0.7647;0.4943;0.1543;0.2388;0.4066;0.3091;0.8766
4123495;2014-07-01;41234952014;0.131;0.0298;0.0122;0.3834;0.54;0.8042;0.4672;0.268;0.4049;0.3153;0.2073;0.9126
4123710;2014-06-11;41237102014;0.5363;0.7029;0.6834;0.6245;0.8815;0.9155;0.6842;0.506;0.6865;0.4783;0.7052;0.9476
4123755;2014-06-30;41237552014;0.085;0.0034;0.0046;0.2831;0.4982;0.7317;0.4991;0.1726;0.2478;0.3014;0.2194;0.781
4123760;2014-06-10;41237602014;0.056;0.0231;0.0115;0.0373;0.4789;0.8192;0.2761;0.4427;0.3385;0.0342;0.2603;0.3892
4600006;2014-07-31;46000062014;0.6318;0.657;0.6506;0.5243;0.6398;0.7647;0.7562;0.5621;0.6549;0.4838;0.6346;0.7612
4600012;2014-08-30;46000122014;0.3892;0.1865;0.1011;0.638;0.541;0.6845;0.5443;0.2399;0.449;0.5882;0.6572;0.8644
4600013;2014-09-09;46000132014;0.1334;0.0727;0.0659;0.9028;0.6557;0.6498;0.7066;0.0806;0.362;0.741;0.221;0.853
